\relax 
\providecommand\hyper@newdestlabel[2]{}
\@setckpt{appendix}{
\setcounter{page}{53}
\setcounter{equation}{0}
\setcounter{enumi}{2}
\setcounter{enumii}{0}
\setcounter{enumiii}{0}
\setcounter{enumiv}{55}
\setcounter{footnote}{1}
\setcounter{mpfootnote}{0}
\setcounter{part}{0}
\setcounter{chapter}{0}
\setcounter{section}{0}
\setcounter{subsection}{0}
\setcounter{subsubsection}{0}
\setcounter{paragraph}{0}
\setcounter{subparagraph}{0}
\setcounter{figure}{33}
\setcounter{table}{8}
\setcounter{firstchapter}{0}
\setcounter{tmpfig}{33}
\setcounter{tmptab}{8}
\setcounter{numapp}{0}
\setcounter{Item}{38}
\setcounter{Hfootnote}{6}
\setcounter{bookmark@seq@number}{48}
\setcounter{lstnumber}{1}
\setcounter{AlgoLine}{0}
\setcounter{algocfline}{1}
\setcounter{algocfproc}{1}
\setcounter{algocf}{1}
\setcounter{ContinuedFloat}{0}
\setcounter{subfigure}{0}
\setcounter{subtable}{0}
\setcounter{parentequation}{0}
\setcounter{section@level}{1}
\setcounter{lstlisting}{0}
}
