\relax 
\providecommand\hyper@newdestlabel[2]{}
\citation{azuma1997survey}
\citation{van2010survey}
\citation{van2010survey}
\citation{vuforia}
\citation{vuforia}
\@writefile{toc}{\contentsline {chapter}{\numberline {2}Background and Related Work}{4}{section*.13}}
\@writefile{loa}{\addvspace {10\p@ }}
\newlabel{chap:backgroundrelated}{{2}{4}{Background and Related Work}{section*.13}{}}
\@writefile{toc}{\contentsline {section}{\numberline {2.1}Augmented Reality}{4}{section.2.1}}
\citation{6649963}
\@writefile{lof}{\contentsline {figure}{\numberline {1}{\ignorespaces a) Fiducial Marker and b) Marker-less tracking\cite  {vuforia}\relax }}{5}{figure.caption.14}}
\providecommand*\caption@xref[2]{\@setref\relax\@undefined{#1}}
\newlabel{fig:martracking}{{1}{5}{a) Fiducial Marker and b) Marker-less tracking\cite {vuforia}\relax }{figure.caption.14}{}}
\@writefile{lof}{\contentsline {figure}{\numberline {2}{\ignorespaces Tracking Coordinate System\relax }}{5}{figure.caption.15}}
\newlabel{fig:track_coord}{{2}{5}{Tracking Coordinate System\relax }{figure.caption.15}{}}
\@writefile{toc}{\contentsline {section}{\numberline {2.2}Leap Motion Controller}{5}{section.2.2}}
\newlabel{section:leap}{{2.2}{5}{Leap Motion Controller}{section.2.2}{}}
\citation{leapmotion}
\citation{guna2014analysis}
\citation{leapmotion}
\citation{guna2014analysis}
\citation{guna2014analysis}
\citation{guna2014analysis}
\citation{spiegelmock2013leap}
\newlabel{properties}{{\caption@xref {properties}{ on input line 108}}{6}{Leap Motion Controller}{figure.caption.16}{}}
\newlabel{sub@properties}{{}{6}{Leap Motion Controller}{figure.caption.16}{}}
\newlabel{space}{{\caption@xref {space}{ on input line 116}}{6}{Leap Motion Controller}{figure.caption.16}{}}
\newlabel{sub@space}{{}{6}{Leap Motion Controller}{figure.caption.16}{}}
\@writefile{lof}{\contentsline {figure}{\numberline {3}{\ignorespaces Leap Motion's a) View\cite  {leapmotion}, b) Structure\cite  {guna2014analysis}\relax }}{6}{figure.caption.16}}
\newlabel{fig:prevscene}{{3}{6}{Leap Motion's a) View\cite {leapmotion}, b) Structure\cite {guna2014analysis}\relax }{figure.caption.16}{}}
\@writefile{lof}{\contentsline {figure}{\numberline {4}{\ignorespaces Pointable fingers\relax }}{6}{figure.caption.17}}
\newlabel{fig:leap_space}{{4}{6}{Pointable fingers\relax }{figure.caption.17}{}}
\@writefile{lof}{\contentsline {figure}{\numberline {5}{\ignorespaces Leap Motion's skeletal tracking\relax }}{6}{figure.caption.18}}
\newlabel{fig:leap_skeleton}{{5}{6}{Leap Motion's skeletal tracking\relax }{figure.caption.18}{}}
\citation{spiegelmock2013leap}
\citation{billinghurst2011gesture}
\citation{hanscomtet}
\citation{hanscomtet}
\citation{Ruiz:2011:UMG:1978942.1978971}
\citation{hanscomtet}
\citation{Ruiz:2011:UMG:1978942.1978971}
\citation{Piumsomboon2013}
\citation{Piumsomboon:2013:UGA:2468356.2468527}
\citation{Piumsomboon:2013:UGA:2468356.2468527}
\citation{Piumsomboon2013}
\@writefile{toc}{\contentsline {section}{\numberline {2.3}Gesture recognition}{7}{section.2.3}}
\@writefile{toc}{\contentsline {subsection}{\numberline {2.3.1}Gestures classification}{7}{subsection.2.3.1}}
\citation{Huerst2013}
\citation{Huerst2011}
\citation{Piumsomboon2013}
\citation{Piumsomboon:2013:UGA:2468356.2468527}
\citation{hanscomtet}
\citation{Reifinger2007}
\citation{Grandhi:2011:UNI:1978942.1979061}
\citation{Grandhi:2011:UNI:1978942.1979061}
\citation{Grandhi:2011:UNI:1978942.1979061}
\citation{Hoggan:2013:MPG:2512349.2512817}
\citation{Hoggan:2013:MPG:2512349.2512817}
\citation{Wilson:2006:RCV:1166253.1166292}
\citation{Balakrishnan:1997:PDF:258549.258764}
\@writefile{toc}{\contentsline {subsection}{\numberline {2.3.2}Gestures acceptance and intuitiveness}{8}{subsection.2.3.2}}
\citation{Wilson:2006:RCV:1166253.1166292}
\citation{Piumsomboon2013}
\citation{Piumsomboon:2013:UGA:2468356.2468527}
\citation{6601976}
\citation{6601976}
\citation{6601976}
\citation{leitner2007designing}
\@writefile{toc}{\contentsline {section}{\numberline {2.4}Pinch Gesture}{9}{section.2.4}}
\@writefile{lof}{\contentsline {figure}{\numberline {6}{\ignorespaces Pinch Gesture sequence\relax }}{9}{figure.caption.19}}
\newlabel{fig:pinch}{{6}{9}{Pinch Gesture sequence\relax }{figure.caption.19}{}}
\@writefile{toc}{\contentsline {section}{\numberline {2.5}Related Work}{9}{section.2.5}}
\@writefile{toc}{\contentsline {subsection}{\numberline {2.5.1}AR interaction}{9}{subsection.2.5.1}}
\citation{leitner2007designing}
\citation{Park2013854}
\citation{Regenbrecht:2013:LHA:2541016.2541053}
\citation{Potter:2013:LMC:2541016.2541072}
\citation{Potter:2013:LMC:2541016.2541072}
\@writefile{toc}{\contentsline {subsection}{\numberline {2.5.2}Leap Motion Approach}{10}{subsection.2.5.2}}
\citation{guna2014analysis}
\citation{guna2014analysis}
\citation{s130506380}
\citation{s130506380}
\citation{s130506380}
\citation{kinect}
\citation{Ren:2011:RHG:2072298.2071946}
\citation{Ren:2011:RHG:2072298.2072443}
\citation{raeyEMD}
\@writefile{lof}{\contentsline {figure}{\numberline {7}{\ignorespaces Analysis of accuracy from measured points, with a fixed orientation marked in red. a)xy-plane; b) xz-plane; c)yz-plane\cite  {s130506380}\relax }}{11}{figure.caption.20}}
\newlabel{fig:analysisAcc}{{7}{11}{Analysis of accuracy from measured points, with a fixed orientation marked in red. a)xy-plane; b) xz-plane; c)yz-plane\cite {s130506380}\relax }{figure.caption.20}{}}
\@writefile{toc}{\contentsline {subsection}{\numberline {2.5.3}AR Gesture-based Interaction}{11}{subsection.2.5.3}}
\citation{Proc.ImageandVisionComputingNewZealand(IVCNZ-2011)}
\citation{kinect}
\citation{Clark:2011:RAR:2087756.2087851}
\citation{Clark:2011:RAR:2087756.2087851}
\citation{Chun:2013:RHI:2449396.2449435}
\citation{Chun:2013:RHI:2449396.2449435}
\citation{4762125}
\citation{Bai:2013:MGI:2543651.2543678}
\citation{radkowski2012interactive}
\citation{kinect}
\citation{Huerst2013}
\citation{Huerst2013}
\citation{Regenbrecht:2013:LHA:2541016.2541053}
\@writefile{lot}{\contentsline {table}{\numberline {1}{\ignorespaces Summary of related work\relax }}{14}{table.caption.21}}
\newlabel{tab:summary}{{1}{14}{Summary of related work\relax }{table.caption.21}{}}
\@setckpt{backgroundrelated}{
\setcounter{page}{15}
\setcounter{equation}{0}
\setcounter{enumi}{5}
\setcounter{enumii}{0}
\setcounter{enumiii}{0}
\setcounter{enumiv}{0}
\setcounter{footnote}{1}
\setcounter{mpfootnote}{0}
\setcounter{part}{0}
\setcounter{chapter}{2}
\setcounter{section}{5}
\setcounter{subsection}{3}
\setcounter{subsubsection}{0}
\setcounter{paragraph}{0}
\setcounter{subparagraph}{0}
\setcounter{figure}{7}
\setcounter{table}{1}
\setcounter{firstchapter}{0}
\setcounter{tmpfig}{0}
\setcounter{tmptab}{0}
\setcounter{numapp}{0}
\setcounter{Item}{10}
\setcounter{Hfootnote}{1}
\setcounter{bookmark@seq@number}{20}
\setcounter{lstnumber}{1}
\setcounter{AlgoLine}{0}
\setcounter{algocfline}{0}
\setcounter{algocfproc}{0}
\setcounter{algocf}{0}
\setcounter{ContinuedFloat}{0}
\setcounter{subfigure}{0}
\setcounter{subtable}{0}
\setcounter{parentequation}{0}
\setcounter{section@level}{2}
\setcounter{lstlisting}{0}
}
