\relax 
\providecommand\hyper@newdestlabel[2]{}
\@writefile{toc}{\contentsline {chapter}{\numberline {6}Conclusion and Future Work}{45}{section*.70}}
\@writefile{loa}{\addvspace {10\p@ }}
\newlabel{chap:conclusion}{{6}{45}{Conclusion and Future Work}{section*.70}{}}
\@writefile{toc}{\contentsline {section}{\numberline {6.1}Contributions}{45}{section.6.1}}
\@writefile{toc}{\contentsline {section}{\numberline {6.2}Future work}{46}{section.6.2}}
\@setckpt{conclusion}{
\setcounter{page}{47}
\setcounter{equation}{0}
\setcounter{enumi}{2}
\setcounter{enumii}{0}
\setcounter{enumiii}{0}
\setcounter{enumiv}{0}
\setcounter{footnote}{1}
\setcounter{mpfootnote}{0}
\setcounter{part}{0}
\setcounter{chapter}{6}
\setcounter{section}{2}
\setcounter{subsection}{0}
\setcounter{subsubsection}{0}
\setcounter{paragraph}{0}
\setcounter{subparagraph}{0}
\setcounter{figure}{33}
\setcounter{table}{8}
\setcounter{firstchapter}{0}
\setcounter{tmpfig}{33}
\setcounter{tmptab}{8}
\setcounter{numapp}{0}
\setcounter{Item}{38}
\setcounter{Hfootnote}{6}
\setcounter{bookmark@seq@number}{47}
\setcounter{lstnumber}{1}
\setcounter{AlgoLine}{0}
\setcounter{algocfline}{1}
\setcounter{algocfproc}{1}
\setcounter{algocf}{1}
\setcounter{ContinuedFloat}{0}
\setcounter{subfigure}{0}
\setcounter{subtable}{0}
\setcounter{parentequation}{0}
\setcounter{section@level}{1}
\setcounter{lstlisting}{0}
}
