\relax 
\providecommand\hyper@newdestlabel[2]{}
\citation{Proc.ImageandVisionComputingNewZealand(IVCNZ-2011)}
\citation{Piumsomboon2013}
\citation{970515}
\citation{hanscomtet}
\citation{Huerst2013}
\citation{Proc.ImageandVisionComputingNewZealand(IVCNZ-2011)}
\citation{Piumsomboon2013}
\citation{970515}
\citation{hanscomtet}
\citation{Hayashi:2005:ODR:1152399.1152432}
\citation{Huerst2013}
\citation{rovelogustavo}
\citation{Piumsomboon2013}
\citation{Huerst2011}
\citation{Huerst2013}
\@writefile{toc}{\contentsline {chapter}{\numberline {3}Design and Methods}{15}{section*.22}}
\@writefile{loa}{\addvspace {10\p@ }}
\newlabel{chap:design}{{3}{15}{Design and Methods}{section*.22}{}}
\@writefile{toc}{\contentsline {section}{\numberline {3.1}Guidelines}{15}{section.3.1}}
\citation{vuforia}
\citation{vuforia}
\citation{vuforia}
\@writefile{toc}{\contentsline {section}{\numberline {3.2}Choice of frameworks}{16}{section.3.2}}
\citation{vuforia}
\citation{vuforia}
\@writefile{toc}{\contentsline {section}{\numberline {3.3}AR Workflow}{17}{section.3.3}}
\@writefile{lof}{\contentsline {figure}{\numberline {8}{\ignorespaces Vuforia architecture (yellow highlight)\relax }}{17}{figure.caption.23}}
\newlabel{fig:vuforiaarch}{{8}{17}{Vuforia architecture (yellow highlight)\relax }{figure.caption.23}{}}
\citation{surf}
\citation{vuforia}
\@writefile{toc}{\contentsline {subsection}{\numberline {3.3.1}Feature tracking (Image target)}{18}{subsection.3.3.1}}
\@writefile{lof}{\contentsline {figure}{\numberline {9}{\ignorespaces Feature matching using SURF feature detector\relax }}{18}{figure.caption.24}}
\newlabel{fig:surf}{{9}{18}{Feature matching using SURF feature detector\relax }{figure.caption.24}{}}
\@writefile{lof}{\contentsline {figure}{\numberline {10}{\ignorespaces Features: A square has 4, for its corners, a circle has no features and third shape has 2.\relax }}{18}{figure.caption.25}}
\newlabel{fig:features}{{10}{18}{Features: A square has 4, for its corners, a circle has no features and third shape has 2.\relax }{figure.caption.25}{}}
\citation{leapmotion}
\@writefile{lof}{\contentsline {figure}{\numberline {11}{\ignorespaces Stones image target and its distributed features on the right side\relax }}{19}{figure.caption.26}}
\newlabel{fig:imagetarget}{{11}{19}{Stones image target and its distributed features on the right side\relax }{figure.caption.26}{}}
\@writefile{toc}{\contentsline {section}{\numberline {3.4}Hand-motion tracking Workflow}{19}{section.3.4}}
\citation{leapmotion}
\citation{Piumsomboon2013}
\citation{Piumsomboon:2013:UGA:2468356.2468527}
\citation{Piumsomboon:2013:UGA:2468356.2468527}
\@writefile{lof}{\contentsline {figure}{\numberline {12}{\ignorespaces Leap Motion Architecture\relax }}{20}{figure.caption.27}}
\newlabel{fig:leaparchitecture}{{12}{20}{Leap Motion Architecture\relax }{figure.caption.27}{}}
\@writefile{toc}{\contentsline {subsection}{\numberline {3.4.1}Interaction Box}{20}{subsection.3.4.1}}
\@writefile{lot}{\contentsline {table}{\numberline {2}{\ignorespaces Interaction box size (mm)\relax }}{20}{table.caption.28}}
\newlabel{tab:intersizes}{{2}{20}{Interaction box size (mm)\relax }{table.caption.28}{}}
\@writefile{toc}{\contentsline {section}{\numberline {3.5}Pinch Gesture}{20}{section.3.5}}
\newlabel{section:pinchalgo}{{3.5}{20}{Pinch Gesture}{section.3.5}{}}
\citation{leapmotion}
\@writefile{lof}{\contentsline {figure}{\numberline {13}{\ignorespaces Interaction Box within the Leap's field of view\relax }}{21}{figure.caption.29}}
\newlabel{fig:interactionbox}{{13}{21}{Interaction Box within the Leap's field of view\relax }{figure.caption.29}{}}
\newlabel{euclidean}{{3.1}{21}{Pinch Gesture}{equation.3.5.1}{}}
\@writefile{lof}{\contentsline {figure}{\numberline {14}{\ignorespaces Pinch Gesture Algorithm\relax }}{22}{figure.caption.30}}
\newlabel{fig:pinchalgo}{{14}{22}{Pinch Gesture Algorithm\relax }{figure.caption.30}{}}
\@writefile{toc}{\contentsline {section}{\numberline {3.6}AR - Hand-motion tracking integration}{22}{section.3.6}}
\citation{vuforia}
\@writefile{lof}{\contentsline {figure}{\numberline {15}{\ignorespaces Pinch Threshold\relax }}{23}{figure.caption.31}}
\newlabel{fig:pinchdist}{{15}{23}{Pinch Threshold\relax }{figure.caption.31}{}}
\@writefile{toc}{\contentsline {subsubsection}{Coordinate Systems Matching}{23}{section*.32}}
\@writefile{lof}{\contentsline {figure}{\numberline {16}{\ignorespaces Leap Motion and Image target set-up\relax }}{23}{figure.caption.33}}
\newlabel{fig:matching}{{16}{23}{Leap Motion and Image target set-up\relax }{figure.caption.33}{}}
\@writefile{toc}{\contentsline {subsubsection}{General Architecture}{24}{section*.34}}
\@writefile{lof}{\contentsline {figure}{\numberline {17}{\ignorespaces General Application Architecture\relax }}{24}{figure.caption.35}}
\newlabel{fig:framework}{{17}{24}{General Application Architecture\relax }{figure.caption.35}{}}
\citation{vuforia}
\citation{Pulli:1250943}
\citation{vuforia}
\@writefile{toc}{\contentsline {subsubsection}{AR-Leap Motion Tracking and Rendering}{25}{section*.36}}
\newlabel{PoseMatrix}{{3.2}{25}{AR-Leap Motion Tracking and Rendering}{equation.3.6.2}{}}
\@writefile{lof}{\contentsline {figure}{\numberline {18}{\ignorespaces Image target within perspective frustrum\relax }}{25}{figure.caption.37}}
\newlabel{fig:frustrum}{{18}{25}{Image target within perspective frustrum\relax }{figure.caption.37}{}}
\@writefile{loa}{\contentsline {algocf}{\numberline {1}{\ignorespaces AR-Leap Motion Algorithm\relax }}{26}{algocf.1}}
\newlabel{fig:arleapalgo}{{1}{26}{AR-Leap Motion Tracking and Rendering}{algocf.1}{}}
\@writefile{toc}{\contentsline {section}{\numberline {3.7}Proof of Concept for Mobile Devices}{26}{section.3.7}}
\newlabel{section:mobileproof}{{3.7}{26}{Proof of Concept for Mobile Devices}{section.3.7}{}}
\@writefile{lof}{\contentsline {figure}{\numberline {19}{\ignorespaces AR interaction Scenario\relax }}{27}{figure.caption.39}}
\newlabel{fig:scenario}{{19}{27}{AR interaction Scenario\relax }{figure.caption.39}{}}
\@writefile{lof}{\contentsline {figure}{\numberline {20}{\ignorespaces Mobile Architecture Concept\relax }}{27}{figure.caption.40}}
\newlabel{fig:mobileconcept}{{20}{27}{Mobile Architecture Concept\relax }{figure.caption.40}{}}
\@setckpt{design}{
\setcounter{page}{28}
\setcounter{equation}{2}
\setcounter{enumi}{6}
\setcounter{enumii}{0}
\setcounter{enumiii}{0}
\setcounter{enumiv}{0}
\setcounter{footnote}{3}
\setcounter{mpfootnote}{0}
\setcounter{part}{0}
\setcounter{chapter}{3}
\setcounter{section}{7}
\setcounter{subsection}{0}
\setcounter{subsubsection}{0}
\setcounter{paragraph}{0}
\setcounter{subparagraph}{0}
\setcounter{figure}{20}
\setcounter{table}{2}
\setcounter{firstchapter}{0}
\setcounter{tmpfig}{7}
\setcounter{tmptab}{1}
\setcounter{numapp}{0}
\setcounter{Item}{16}
\setcounter{Hfootnote}{4}
\setcounter{bookmark@seq@number}{30}
\setcounter{lstnumber}{1}
\setcounter{AlgoLine}{0}
\setcounter{algocfline}{1}
\setcounter{algocfproc}{1}
\setcounter{algocf}{1}
\setcounter{ContinuedFloat}{0}
\setcounter{subfigure}{0}
\setcounter{subtable}{0}
\setcounter{parentequation}{0}
\setcounter{section@level}{1}
\setcounter{lstlisting}{0}
}
