\relax 
\providecommand\hyper@newdestlabel[2]{}
\citation{Potter:2013:LMC:2541016.2541072}
\citation{Potter:2013:LMC:2541016.2541072}
\@writefile{toc}{\contentsline {chapter}{\numberline {6}Discussion}{33}{section*.20}}
\@writefile{loa}{\addvspace {10\p@ }}
\newlabel{chap:discussion}{{6}{33}{Discussion}{section*.20}{}}
\citation{Potter:2013:LMC:2541016.2541072}
\citation{Park2013854}
\citation{Piumsomboon2013}
\citation{Piumsomboon:2013:UGA:2468356.2468527}
\@writefile{toc}{\contentsline {chapter}{Conclusion, probably summary}{35}{section*.25}}
\@setckpt{discussion}{
\setcounter{page}{36}
\setcounter{equation}{0}
\setcounter{enumi}{6}
\setcounter{enumii}{0}
\setcounter{enumiii}{0}
\setcounter{enumiv}{0}
\setcounter{footnote}{0}
\setcounter{mpfootnote}{0}
\setcounter{part}{0}
\setcounter{chapter}{6}
\setcounter{section}{0}
\setcounter{subsection}{0}
\setcounter{subsubsection}{0}
\setcounter{paragraph}{0}
\setcounter{subparagraph}{0}
\setcounter{figure}{14}
\setcounter{table}{0}
\setcounter{firstchapter}{0}
\setcounter{tmpfig}{14}
\setcounter{tmptab}{0}
\setcounter{numapp}{0}
\setcounter{Item}{8}
\setcounter{Hfootnote}{2}
\setcounter{bookmark@seq@number}{46}
\setcounter{lstnumber}{1}
\setcounter{AlgoLine}{0}
\setcounter{algocfline}{1}
\setcounter{algocfproc}{1}
\setcounter{algocf}{1}
\setcounter{section@level}{1}
\setcounter{lstlisting}{0}
}
