\relax 
\providecommand\hyper@newdestlabel[2]{}
\citation{unity}
\citation{vuforia}
\citation{leapmotion}
\@writefile{toc}{\contentsline {chapter}{\numberline {4}Implementation and Evaluation}{28}{section*.41}}
\@writefile{loa}{\addvspace {10\p@ }}
\newlabel{chap:implementation}{{4}{28}{Implementation and Evaluation}{section*.41}{}}
\@writefile{toc}{\contentsline {section}{\numberline {4.1}Development Tools}{28}{section.4.1}}
\@writefile{toc}{\contentsline {section}{\numberline {4.2}AR-Leap Motion Scene}{28}{section.4.2}}
\newlabel{section:arleapscene}{{4.2}{28}{AR-Leap Motion Scene}{section.4.2}{}}
\@writefile{lof}{\contentsline {figure}{\numberline {21}{\ignorespaces Scene Example\relax }}{29}{figure.caption.42}}
\newlabel{fig:prev1}{{21}{29}{Scene Example\relax }{figure.caption.42}{}}
\citation{doi:10.1080/10447310802205776}
\citation{leapmotion}
\@writefile{toc}{\contentsline {section}{\numberline {4.3}Experimental Set-up}{30}{section.4.3}}
\newlabel{set1}{{\caption@xref {set1}{ on input line 212}}{30}{Experimental Set-up}{figure.caption.43}{}}
\newlabel{sub@set1}{{}{30}{Experimental Set-up}{figure.caption.43}{}}
\newlabel{set2}{{\caption@xref {set2}{ on input line 220}}{30}{Experimental Set-up}{figure.caption.43}{}}
\newlabel{sub@set2}{{}{30}{Experimental Set-up}{figure.caption.43}{}}
\@writefile{lof}{\contentsline {figure}{\numberline {22}{\ignorespaces Experiment Set-up\relax }}{30}{figure.caption.43}}
\newlabel{fig:prevscene}{{22}{30}{Experiment Set-up\relax }{figure.caption.43}{}}
\@writefile{toc}{\contentsline {section}{\numberline {4.4}Evaluation}{30}{section.4.4}}
\@writefile{toc}{\contentsline {subsection}{\numberline {4.4.1}Test No.1}{30}{subsection.4.4.1}}
\newlabel{sec:test1}{{4.4.1}{30}{Test No.1}{subsection.4.4.1}{}}
\@writefile{lof}{\contentsline {figure}{\numberline {23}{\ignorespaces 3D scene of Test No. 1\relax }}{31}{figure.caption.44}}
\newlabel{fig:scenetest1}{{23}{31}{3D scene of Test No. 1\relax }{figure.caption.44}{}}
\@writefile{toc}{\contentsline {subsubsection}{Participants}{31}{section*.45}}
\@writefile{toc}{\contentsline {subsubsection}{Procedure}{31}{section*.47}}
\citation{finstad2006system}
\citation{doi:10.1080/10447310802205776}
\citation{doi:10.1080/10447310802205776}
\citation{doi:10.1080/10447310802205776}
\@writefile{lof}{\contentsline {figure}{\numberline {24}{\ignorespaces Participant performing test\relax }}{32}{figure.caption.46}}
\newlabel{fig:participant}{{24}{32}{Participant performing test\relax }{figure.caption.46}{}}
\@writefile{toc}{\contentsline {subsubsection}{Participant instructions}{32}{section*.48}}
\@writefile{lof}{\contentsline {figure}{\numberline {25}{\ignorespaces Sequence grab-move release\relax }}{32}{figure.caption.49}}
\newlabel{fig:sequence1}{{25}{32}{Sequence grab-move release\relax }{figure.caption.49}{}}
\@writefile{toc}{\contentsline {subsubsection}{Data}{32}{section*.50}}
\@writefile{toc}{\contentsline {subsubsection}{System Usability Scale}{32}{section*.53}}
\newlabel{sus}{{4.4.1}{32}{System Usability Scale}{section*.53}{}}
\citation{suspage}
\@writefile{lot}{\contentsline {table}{\numberline {3}{\ignorespaces Event log entry parameters\relax }}{33}{table.caption.51}}
\newlabel{tab:eventlog}{{3}{33}{Event log entry parameters\relax }{table.caption.51}{}}
\@writefile{lot}{\contentsline {table}{\numberline {4}{\ignorespaces Event Data Type collected on test No. 1\relax }}{33}{table.caption.52}}
\newlabel{tab:eventdataatype}{{4}{33}{Event Data Type collected on test No. 1\relax }{table.caption.52}{}}
\@writefile{toc}{\contentsline {subsubsection}{Questionnaire and observation}{34}{section*.54}}
\newlabel{questionnaire}{{4.4.1}{34}{Questionnaire and observation}{section*.54}{}}
\@writefile{toc}{\contentsline {subsection}{\numberline {4.4.2}Test No. 2}{34}{subsection.4.4.2}}
\@writefile{lof}{\contentsline {figure}{\numberline {26}{\ignorespaces Cubes distribution along the interaction space\relax }}{34}{figure.caption.55}}
\newlabel{fig:cubestest2}{{26}{34}{Cubes distribution along the interaction space\relax }{figure.caption.55}{}}
\@writefile{lot}{\contentsline {table}{\numberline {5}{\ignorespaces Event Data Type collected on test No. 2\relax }}{35}{table.caption.59}}
\newlabel{tab:eventdataatype2}{{5}{35}{Event Data Type collected on test No. 2\relax }{table.caption.59}{}}
\@writefile{toc}{\contentsline {subsubsection}{Participants}{35}{section*.56}}
\@writefile{lof}{\contentsline {figure}{\numberline {27}{\ignorespaces Participant showing difficulties in the edges\relax }}{35}{figure.caption.57}}
\newlabel{fig:usertest2}{{27}{35}{Participant showing difficulties in the edges\relax }{figure.caption.57}{}}
\@writefile{toc}{\contentsline {subsubsection}{Data}{35}{section*.58}}
\@setckpt{implementation}{
\setcounter{page}{36}
\setcounter{equation}{0}
\setcounter{enumi}{10}
\setcounter{enumii}{0}
\setcounter{enumiii}{0}
\setcounter{enumiv}{0}
\setcounter{footnote}{1}
\setcounter{mpfootnote}{0}
\setcounter{part}{0}
\setcounter{chapter}{4}
\setcounter{section}{4}
\setcounter{subsection}{2}
\setcounter{subsubsection}{0}
\setcounter{paragraph}{0}
\setcounter{subparagraph}{0}
\setcounter{figure}{27}
\setcounter{table}{5}
\setcounter{firstchapter}{0}
\setcounter{tmpfig}{20}
\setcounter{tmptab}{2}
\setcounter{numapp}{0}
\setcounter{Item}{36}
\setcounter{Hfootnote}{5}
\setcounter{bookmark@seq@number}{37}
\setcounter{lstnumber}{1}
\setcounter{AlgoLine}{0}
\setcounter{algocfline}{1}
\setcounter{algocfproc}{1}
\setcounter{algocf}{1}
\setcounter{ContinuedFloat}{0}
\setcounter{subfigure}{0}
\setcounter{subtable}{0}
\setcounter{parentequation}{0}
\setcounter{section@level}{3}
\setcounter{lstlisting}{0}
}
