\relax 
\providecommand\hyper@newdestlabel[2]{}
\citation{FengZhou:2008:TAR:1605298.1605333}
\citation{Billinghurst:2013:HSS:2522848.2532202}
\citation{Billinghurst:2013:HSS:2522848.2532202}
\citation{5501695}
\citation{storring2004computer}
\citation{6601976}
\citation{4762125}
\citation{kinect}
\citation{leapmotion}
\citation{Ren:2011:RHG:2072298.2072443}
\citation{radkowski2012interactive}
\citation{Wang20131}
\citation{FengZhou:2008:TAR:1605298.1605333}
\citation{5501695}
\citation{storring2004computer}
\citation{6601976}
\citation{4762125}
\citation{Clark:2011:RAR:2087756.2087851}
\citation{Lee:2012:AZI:2407516.2407518}
\citation{Proc.ImageandVisionComputingNewZealand(IVCNZ-2011)}
\citation{Billinghurst:2013:HSS:2522848.2532202}
\citation{Regenbrecht:2013:LHA:2541016.2541053}
\citation{Regenbrecht:2013:LHA:2541016.2541053}
\citation{Regenbrecht:2013:LHA:2541016.2541053}
\@writefile{toc}{\contentsline {chapter}{\numberline {1}Introduction}{1}{section*.12}}
\@writefile{loa}{\addvspace {10\p@ }}
\newlabel{chap:introduction}{{1}{1}{Introduction}{section*.12}{}}
\@writefile{toc}{\contentsline {section}{\numberline {1.1}Problem Description}{1}{section.1.1}}
\citation{Ren:2011:RHG:2072298.2071946}
\citation{Ren:2011:RHG:2072298.2071946}
\citation{Billinghurst:2013:HSS:2522848.2532202}
\citation{menggestures}
\citation{guna2014analysis}
\citation{Proc.ImageandVisionComputingNewZealand(IVCNZ-2011)}
\@writefile{toc}{\contentsline {section}{\numberline {1.2}Objectives and scope delimitation}{2}{section.1.2}}
\citation{leapmotion}
\citation{costaselderly}
\citation{costas2014}
\citation{Piumsomboon2013}
\citation{hanscomtet}
\@writefile{toc}{\contentsline {section}{\numberline {1.3}Outline}{3}{section.1.3}}
\@setckpt{introduction}{
\setcounter{page}{4}
\setcounter{equation}{0}
\setcounter{enumi}{3}
\setcounter{enumii}{0}
\setcounter{enumiii}{0}
\setcounter{enumiv}{0}
\setcounter{footnote}{0}
\setcounter{mpfootnote}{0}
\setcounter{part}{0}
\setcounter{chapter}{1}
\setcounter{section}{3}
\setcounter{subsection}{0}
\setcounter{subsubsection}{0}
\setcounter{paragraph}{0}
\setcounter{subparagraph}{0}
\setcounter{figure}{0}
\setcounter{table}{0}
\setcounter{firstchapter}{0}
\setcounter{tmpfig}{0}
\setcounter{tmptab}{0}
\setcounter{numapp}{0}
\setcounter{Item}{5}
\setcounter{Hfootnote}{0}
\setcounter{bookmark@seq@number}{9}
\setcounter{lstnumber}{1}
\setcounter{AlgoLine}{0}
\setcounter{algocfline}{0}
\setcounter{algocfproc}{0}
\setcounter{algocf}{0}
\setcounter{ContinuedFloat}{0}
\setcounter{subfigure}{0}
\setcounter{subtable}{0}
\setcounter{parentequation}{0}
\setcounter{section@level}{1}
\setcounter{lstlisting}{0}
}
