\relax 
\providecommand\hyper@newdestlabel[2]{}
\providecommand\HyperFirstAtBeginDocument{\AtBeginDocument}
\HyperFirstAtBeginDocument{\ifx\hyper@anchor\@undefined
\global\let\oldcontentsline\contentsline
\gdef\contentsline#1#2#3#4{\oldcontentsline{#1}{#2}{#3}}
\global\let\oldnewlabel\newlabel
\gdef\newlabel#1#2{\newlabelxx{#1}#2}
\gdef\newlabelxx#1#2#3#4#5#6{\oldnewlabel{#1}{{#2}{#3}}}
\AtEndDocument{\ifx\hyper@anchor\@undefined
\let\contentsline\oldcontentsline
\let\newlabel\oldnewlabel
\fi}
\fi}
\global\let\hyper@last\relax 
\gdef\HyperFirstAtBeginDocument#1{#1}
\providecommand\HyField@AuxAddToFields[1]{}
\providecommand\HyField@AuxAddToCoFields[2]{}
\select@language{english}
\@writefile{toc}{\select@language{english}}
\@writefile{lof}{\select@language{english}}
\@writefile{lot}{\select@language{english}}
\@writefile{toc}{\contentsline {chapter}{Abstract}{i}{section*.2}}
\@writefile{toc}{\contentsline {chapter}{Preface}{ii}{section*.5}}
\@writefile{toc}{\contentsline {chapter}{Contents}{iii}{section*.7}}
\citation{vuforia}
\citation{leapmotion}
\citation{guna2014analysis}
\citation{s130506380}
\@writefile{toc}{\contentsline {chapter}{List of Figures}{v}{section*.9}}
\@writefile{toc}{\contentsline {chapter}{List of Tables}{vi}{section*.11}}
\@input{introduction.aux}
\@input{backgroundrelated.aux}
\@input{design.aux}
\@input{implementation.aux}
\@input{results.aux}
\@input{conclusion.aux}
\bibstyle{gucthesis/gucthesis}
\bibdata{papersDB}
\bibcite{leapmotion}{1}
\bibcite{guna2014analysis}{2}
\bibcite{s130506380}{3}
\bibcite{FengZhou:2008:TAR:1605298.1605333}{4}
\bibcite{Billinghurst:2013:HSS:2522848.2532202}{5}
\bibcite{5501695}{6}
\bibcite{storring2004computer}{7}
\bibcite{6601976}{8}
\bibcite{4762125}{9}
\bibcite{kinect}{10}
\bibcite{Ren:2011:RHG:2072298.2072443}{11}
\@writefile{toc}{\contentsline {chapter}{Bibliography}{47}{section*.72}}
\bibcite{radkowski2012interactive}{12}
\bibcite{Wang20131}{13}
\bibcite{Clark:2011:RAR:2087756.2087851}{14}
\bibcite{Lee:2012:AZI:2407516.2407518}{15}
\bibcite{Proc.ImageandVisionComputingNewZealand(IVCNZ-2011)}{16}
\bibcite{Regenbrecht:2013:LHA:2541016.2541053}{17}
\bibcite{Ren:2011:RHG:2072298.2071946}{18}
\bibcite{menggestures}{19}
\bibcite{costaselderly}{20}
\bibcite{costas2014}{21}
\bibcite{Piumsomboon2013}{22}
\bibcite{hanscomtet}{23}
\bibcite{azuma1997survey}{24}
\bibcite{van2010survey}{25}
\bibcite{6649963}{26}
\bibcite{spiegelmock2013leap}{27}
\bibcite{billinghurst2011gesture}{28}
\bibcite{Ruiz:2011:UMG:1978942.1978971}{29}
\bibcite{Piumsomboon:2013:UGA:2468356.2468527}{30}
\bibcite{Huerst2013}{31}
\bibcite{Huerst2011}{32}
\bibcite{Reifinger2007}{33}
\bibcite{Grandhi:2011:UNI:1978942.1979061}{34}
\bibcite{Hoggan:2013:MPG:2512349.2512817}{35}
\bibcite{Wilson:2006:RCV:1166253.1166292}{36}
\bibcite{Balakrishnan:1997:PDF:258549.258764}{37}
\bibcite{leitner2007designing}{38}
\bibcite{Park2013854}{39}
\bibcite{Potter:2013:LMC:2541016.2541072}{40}
\bibcite{raeyEMD}{41}
\bibcite{Chun:2013:RHI:2449396.2449435}{42}
\bibcite{Bai:2013:MGI:2543651.2543678}{43}
\bibcite{970515}{44}
\bibcite{Hayashi:2005:ODR:1152399.1152432}{45}
\bibcite{rovelogustavo}{46}
\bibcite{vuforia}{47}
\bibcite{surf}{48}
\bibcite{Pulli:1250943}{49}
\bibcite{unity}{50}
\bibcite{doi:10.1080/10447310802205776}{51}
\bibcite{finstad2006system}{52}
\bibcite{suspage}{53}
\bibcite{5643530}{54}
\bibcite{ibrahim2011}{55}
\@input{appendix.aux}
\newlabel{LastPage}{{}{52}{}{page.52}{}}
\xdef\lastpage@lastpage{52}
\xdef\lastpage@lastpageHy{52}
