\relax 
\providecommand\hyper@newdestlabel[2]{}
\@setckpt{packages}{
\setcounter{page}{4}
\setcounter{equation}{0}
\setcounter{enumi}{2}
\setcounter{enumii}{0}
\setcounter{enumiii}{0}
\setcounter{enumiv}{0}
\setcounter{footnote}{0}
\setcounter{mpfootnote}{0}
\setcounter{part}{0}
\setcounter{chapter}{1}
\setcounter{section}{2}
\setcounter{subsection}{0}
\setcounter{subsubsection}{0}
\setcounter{paragraph}{0}
\setcounter{subparagraph}{0}
\setcounter{figure}{0}
\setcounter{table}{0}
\setcounter{firstchapter}{0}
\setcounter{tmpfig}{0}
\setcounter{tmptab}{0}
\setcounter{numapp}{0}
\setcounter{Item}{2}
\setcounter{Hfootnote}{0}
\setcounter{bookmark@seq@number}{8}
\setcounter{section@level}{1}
}
