\relax 
\providecommand\hyper@newdestlabel[2]{}
\@writefile{toc}{\contentsline {chapter}{\numberline {5}Results and Discussion}{36}{section*.60}}
\@writefile{loa}{\addvspace {10\p@ }}
\newlabel{chap:results}{{5}{36}{Results and Discussion}{section*.60}{}}
\@writefile{toc}{\contentsline {section}{\numberline {5.1}Test No. 1}{36}{section.5.1}}
\newlabel{testno1}{{5.1}{36}{Test No. 1}{section.5.1}{}}
\@writefile{lot}{\contentsline {table}{\numberline {6}{\ignorespaces Scenes comparison\relax }}{36}{table.caption.61}}
\newlabel{tab:comparison}{{6}{36}{Scenes comparison\relax }{table.caption.61}{}}
\@writefile{lof}{\contentsline {figure}{\numberline {28}{\ignorespaces Frequency distribution on scene A and scene B\relax }}{37}{figure.caption.62}}
\newlabel{fig:frequencies}{{28}{37}{Frequency distribution on scene A and scene B\relax }{figure.caption.62}{}}
\@writefile{toc}{\contentsline {section}{\numberline {5.2}Test No. 2}{37}{section.5.2}}
\@writefile{lof}{\contentsline {figure}{\numberline {29}{\ignorespaces Frequency distribution of time from each attempt on Scene A\relax }}{38}{figure.caption.63}}
\newlabel{fig:attempts}{{29}{38}{Frequency distribution of time from each attempt on Scene A\relax }{figure.caption.63}{}}
\newlabel{grabrelease}{{\caption@xref {grabrelease}{ on input line 100}}{38}{Test No. 1}{figure.caption.64}{}}
\newlabel{sub@grabrelease}{{}{38}{Test No. 1}{figure.caption.64}{}}
\newlabel{handgrab}{{\caption@xref {handgrab}{ on input line 108}}{38}{Test No. 1}{figure.caption.64}{}}
\newlabel{sub@handgrab}{{}{38}{Test No. 1}{figure.caption.64}{}}
\@writefile{lof}{\contentsline {figure}{\numberline {30}{\ignorespaces Means comparison of a) Grab-release and b) Hand-grab movements\relax }}{38}{figure.caption.64}}
\newlabel{fig:meanscomparison}{{30}{38}{Means comparison of a) Grab-release and b) Hand-grab movements\relax }{figure.caption.64}{}}
\citation{doi:10.1080/10447310802205776}
\@writefile{lof}{\contentsline {figure}{\numberline {31}{\ignorespaces Mean's comparison of attempts from scene A and B\relax }}{39}{figure.caption.65}}
\newlabel{fig:meanscenes}{{31}{39}{Mean's comparison of attempts from scene A and B\relax }{figure.caption.65}{}}
\@writefile{toc}{\contentsline {section}{\numberline {5.3}SUS Assessment}{39}{section.5.3}}
\@writefile{lof}{\contentsline {figure}{\numberline {32}{\ignorespaces Time-distance per user\relax }}{40}{figure.caption.66}}
\newlabel{fig:test2}{{32}{40}{Time-distance per user\relax }{figure.caption.66}{}}
\@writefile{toc}{\contentsline {section}{\numberline {5.4}Questionnaire and Observations}{40}{section.5.4}}
\@writefile{lot}{\contentsline {table}{\numberline {7}{\ignorespaces SUS results\relax }}{41}{table.caption.67}}
\newlabel{tab:susresultstable}{{7}{41}{SUS results\relax }{table.caption.67}{}}
\@writefile{lot}{\contentsline {table}{\numberline {8}{\ignorespaces User's previous experience\relax }}{41}{table.caption.69}}
\newlabel{tab:previousexp}{{8}{41}{User's previous experience\relax }{table.caption.69}{}}
\citation{5643530}
\@writefile{lof}{\contentsline {figure}{\numberline {33}{\ignorespaces SUS Average Results per question\relax }}{42}{figure.caption.68}}
\newlabel{fig:susresults}{{33}{42}{SUS Average Results per question\relax }{figure.caption.68}{}}
\citation{ibrahim2011}
\citation{Huerst2011}
\@writefile{toc}{\contentsline {section}{\numberline {5.5}Discussion}{43}{section.5.5}}
\citation{Potter:2013:LMC:2541016.2541072}
\citation{5643530}
\@writefile{toc}{\contentsline {subsection}{\numberline {5.5.1}Limitations}{44}{subsection.5.5.1}}
\@setckpt{results}{
\setcounter{page}{45}
\setcounter{equation}{0}
\setcounter{enumi}{2}
\setcounter{enumii}{0}
\setcounter{enumiii}{0}
\setcounter{enumiv}{0}
\setcounter{footnote}{0}
\setcounter{mpfootnote}{0}
\setcounter{part}{0}
\setcounter{chapter}{5}
\setcounter{section}{5}
\setcounter{subsection}{1}
\setcounter{subsubsection}{0}
\setcounter{paragraph}{0}
\setcounter{subparagraph}{0}
\setcounter{figure}{33}
\setcounter{table}{8}
\setcounter{firstchapter}{0}
\setcounter{tmpfig}{27}
\setcounter{tmptab}{5}
\setcounter{numapp}{0}
\setcounter{Item}{38}
\setcounter{Hfootnote}{5}
\setcounter{bookmark@seq@number}{44}
\setcounter{lstnumber}{1}
\setcounter{AlgoLine}{0}
\setcounter{algocfline}{1}
\setcounter{algocfproc}{1}
\setcounter{algocf}{1}
\setcounter{ContinuedFloat}{0}
\setcounter{subfigure}{0}
\setcounter{subtable}{0}
\setcounter{parentequation}{0}
\setcounter{section@level}{2}
\setcounter{lstlisting}{0}
}
