\relax 
\providecommand\hyper@newdestlabel[2]{}
\@writefile{toc}{\contentsline {chapter}{\numberline {3}Structural Elements}{39}{section*.30}}
\@writefile{loa}{\addvspace {10\p@ }}
\newlabel{chap:structural}{{3}{39}{Structural Elements}{section*.30}{}}
\@writefile{toc}{\contentsline {section}{\numberline {3.1}Page Layout}{39}{section.3.1}}
\@writefile{toc}{\contentsline {section}{\numberline {3.2}Fonts}{39}{section.3.2}}
\@writefile{toc}{\contentsline {section}{\numberline {3.3}Sectioning Commands}{39}{section.3.3}}
\@writefile{toc}{\contentsline {subsection}{\numberline {3.3.1}The subsection}{39}{subsection.3.3.1}}
\@writefile{toc}{\contentsline {subsubsection}{The subsubsection}{39}{section*.31}}
\@writefile{toc}{\contentsline {paragraph}{The paragraph}{39}{section*.32}}
\@writefile{toc}{\contentsline {section}{\numberline {3.4}Floats (Figures and Tables)}{39}{section.3.4}}
\newlabel{sec:floats}{{3.4}{39}{Floats (Figures and Tables)}{section.3.4}{}}
\@writefile{lof}{\contentsline {figure}{\numberline {15}{\ignorespaces An example figure.}}{40}{figure.3.15}}
\newlabel{fig:example}{{15}{40}{An example figure}{figure.3.15}{}}
\@writefile{lot}{\contentsline {table}{\numberline {1}{\ignorespaces An example table.}}{40}{table.3.1}}
\newlabel{tab:example}{{1}{40}{An example table}{table.3.1}{}}
\@writefile{toc}{\contentsline {section}{\numberline {3.5}Quotes}{41}{section.3.5}}
\newlabel{sec:Quotes}{{3.5}{41}{Quotes}{section.3.5}{}}
\@writefile{toc}{\contentsline {section}{\numberline {3.6}Lists}{41}{section.3.6}}
\newlabel{sec:lists}{{3.6}{41}{Lists}{section.3.6}{}}
\citation{Askvall1985}
\citation{Card1983}
\citation{Lancaster1985}
\citation{Meldon1997}
\citation{HiG:Website}
\@writefile{toc}{\contentsline {section}{\numberline {3.7}Bibliographic References}{42}{section.3.7}}
\@setckpt{structure_OLD}{
\setcounter{page}{43}
\setcounter{equation}{0}
\setcounter{enumi}{3}
\setcounter{enumii}{3}
\setcounter{enumiii}{0}
\setcounter{enumiv}{0}
\setcounter{footnote}{0}
\setcounter{mpfootnote}{0}
\setcounter{part}{0}
\setcounter{chapter}{3}
\setcounter{section}{7}
\setcounter{subsection}{0}
\setcounter{subsubsection}{0}
\setcounter{paragraph}{0}
\setcounter{subparagraph}{0}
\setcounter{figure}{15}
\setcounter{table}{1}
\setcounter{firstchapter}{0}
\setcounter{tmpfig}{14}
\setcounter{tmptab}{0}
\setcounter{numapp}{0}
\setcounter{Item}{17}
\setcounter{Hfootnote}{2}
\setcounter{bookmark@seq@number}{56}
\setcounter{lstnumber}{83}
\setcounter{AlgoLine}{0}
\setcounter{algocfline}{1}
\setcounter{algocfproc}{1}
\setcounter{algocf}{1}
\setcounter{section@level}{1}
\setcounter{lstlisting}{0}
}
